[
  "lor",
  "ips",
  "dol",
  "sit",
  "ame",
  "con",
  "adi",
  "eli",
  "mae",
  "max",
  "auc",
  "lig",
  "in",
  "sol",
  "in",
  "ele",
  "ege",
  "era",
  "eu",
  "dig",
  "mas",
  "sol",
  "vel",
  "pha",
  "ut",
  "est",
  "vel",
  "ris",
  "imp",
  "con",
  "ut",
  "sed",
  "lib",
  "sed",
  "hen",
  "a",
  "leo",
  "ac",
  "iac",
  "nul",
  "tri",
  "viv",
  "leo",
  "at",
  "ege",
  "dia",
  "dap",
  "qui",
  "don",
  "bla",
  "iac",
  "tem",
  "nul",
  "var",
  "tem",
  "imp",
  "fus",
  "ege",
  "lor",
  "vit",
  "ris",
  "orn",
  "mol",
  "nun",
  "eu",
  "dol",
  "con",
  "neq",
  "sem",
  "ele",
  "pel",
  "vol",
  "qui",
  "mag",
  "nec",
  "ali",
  "nul",
  "ali",
  "nul",
  "ut",
  "odi",
  "orn",
  "pos",
  "don",
  "sag",
  "eli",
  "at",
  "nul",
  "var",
  "mol",
  "ves",
  "gra",
  "ips",
  "ut",
  "mol",
  "gra",
  "ALGOL",
  "APL",
  "Assembly",
  "BASIC",
  "C",
  "C++",
  "C#",
  "COBOL",
  "Go",
  "Erlang",
  "Forth",
  "Fortran",
  "Haskell",
  "Java",
  "JavaScript",
  "Kotlin",
  "Lisp",
  "ML",
  "Objective-C",
  "Pascal",
  "Perl",
  "PHP",
  "Prolog",
  "Python",
  "R",
  "Ruby",
  "Rust",
  "SQL",
  "Shell",
  "Simula",
  "Smalltalk",
  "Swift"
]
