[
  "ALGOL",
  "APL",
  "Assembly",
  "BASIC",
  "C",
  "C++",
  "C#",
  "COBOL",
  "Go",
  "Erlang",
  "Forth",
  "Fortran",
  "Haskell",
  "Java",
  "JavaScript",
  "Kotlin",
  "Lisp",
  "ML",
  "Objective-C",
  "Pascal",
  "Perl",
  "PHP",
  "Prolog",
  "Python",
  "R",
  "Ruby",
  "Rust",
  "SQL",
  "Shell",
  "Simula",
  "Smalltalk",
  "Swift"
]
